%YAML 1.1
%TAG !u! tag:unity3d.com,2011:
--- !u!114 &11400000
MonoBehaviour:
  m_ObjectHideFlags: 0
  m_PrefabParentObject: {fileID: 0}
  m_PrefabInternal: {fileID: 0}
  m_GameObject: {fileID: 0}
  m_Enabled: 1
  m_EditorHideFlags: 0
  m_Script: {fileID: 11500000, guid: 362f6adfac69e414b9048780719c166b, type: 3}
  m_Name: ElectricBuff
  m_EditorClassIdentifier: 
  modifierName: ElectricBuff
  icon: {fileID: 21300000, guid: 03bc40fb79732ee489daf8891814872d, type: 3}
  playerEffectObject: {fileID: 0}
  localPlayerEffectObject: {fileID: 0}
  unique: 1
  statusType: 0
