%YAML 1.1
%TAG !u! tag:unity3d.com,2011:
--- !u!114 &11400000
MonoBehaviour:
  m_ObjectHideFlags: 0
  m_PrefabParentObject: {fileID: 0}
  m_PrefabInternal: {fileID: 0}
  m_GameObject: {fileID: 0}
  m_Enabled: 1
  m_EditorHideFlags: 0
  m_Script: {fileID: 11500000, guid: e752eba4766733049b7e9f5f15176652, type: 3}
  m_Name: ShopSupportKit
  m_EditorClassIdentifier: 
  itemName: Support Kit
  icon: {fileID: 21300000, guid: 1eaafea19c88db34cb9c9d173ac60024, type: 3}
  dockingKitPrefab: {fileID: 1915877742868264, guid: 8ce5ec456a8dad74d8ea84fed7b4da43,
    type: 2}
  price: 50
  dockingKitId: 8
  dockingKitDescriptions:
  - icon: {fileID: 21300000, guid: 1eaafea19c88db34cb9c9d173ac60024, type: 3}
    name: Support Kit
    description: The team player! Stay alive and heal your team! Cleanse them of whatever
      ailments may bother them! Everyone will love you!
  - icon: {fileID: 21300000, guid: 4d59c6cccb9333b40a9623f366a16e57, type: 3}
    name: Healing Aura
    description: Heals teammates in a circle around the player.
  - icon: {fileID: 21300000, guid: ccb8880c263f03e40bbd5fa5c03c6974, type: 3}
    name: Fortification
    description: Applies a foritification buff to your healing aura, reducing damage
      taken.
  - icon: {fileID: 21300000, guid: 3a59fc461ef25d24aa61072fb9bce250, type: 3}
    name: Cleanse
    description: Send out a ring of TOTALLY PURE MAGIC that will cleanse yourself
      and all teammates of all debuffs and increase movement speed for a short time.
  - icon: {fileID: 21300000, guid: efe3f70a8f8c16c4cb66cecbdc75b5fe, type: 3}
    name: Health Drain
    description: Drain life from enemies around you while distributing it to your
      teammates as healing.
